{
    "+380683842608": [
        {
            "full_price": 12,
            "tariff": 3,
            "phone_number": "+380683842608",
            "call_start": "2022-01-14T19:52:29.920944",
            "call_end": "2022-01-14T19:56:29.920973"
        },
        {
            "full_price": 24,
            "tariff": 3,
            "phone_number": "+380683842608",
            "call_start": "2022-01-14T19:52:36.082776",
            "call_end": "2022-01-14T20:00:36.082787"
        },
        {
            "full_price": 3,
            "tariff": 3,
            "phone_number": "+380683842608",
            "call_start": "2022-01-14T19:53:04.523281",
            "call_end": "2022-01-14T19:54:04.523316"
        }
    ]
}